in/i/i7.png
OCR: Recognized: "Tas."
OCR: Probability: 0.055632774
ES: [{'brand_name': 'tms', 'score': 4.061488}, {'brand_name': 'tav', 'score': 4.061488}]
in/i/i6.png
OCR: Recognized: "soomd"
OCR: Probability: 0.09338094
ES: [{'brand_name': 'stoma', 'score': 4.7606916}, {'brand_name': 'soma', 'score': 3.9359035}, {'brand_name': 'som 20', 'score': 2.9655125}, {'brand_name': 'som 40', 'score': 2.9622805}]
in/i/i5.png
OCR: Recognized: "agois"
OCR: Probability: 0.03919105
ES: [{'brand_name': 'agotin', 'score': 5.835371}, {'brand_name': 'agoxin', 'score': 5.8327413}, {'brand_name': 'aros', 'score': 4.862809}, {'brand_name': 'amodis', 'score': 4.4277005}]
in/i/i4.png
OCR: Recognized: "Eapo-"
OCR: Probability: 0.10200707
ES: [{'brand_name': 'napa', 'score': 3.3667037}, {'brand_name': 'espa', 'score': 3.3667037}, {'brand_name': 'epam', 'score': 3.3081272}, {'brand_name': 'maso', 'score': 3.268492}, {'brand_name': 'balo', 'score': 3.268492}, {'brand_name': 'ergo', 'score': 3.268492}]
in/i/i2.png
in/i/i7.png
OCR: Recognized: "Tas."
OCR: Probability: 0.055632774
ES: [{'brand_name': 'tms', 'score': 4.061488}, {'brand_name': 'tav', 'score': 4.061488}]
in/i/i6.png
OCR: Recognized: "soomd"
OCR: Probability: 0.09338094
ES: [{'brand_name': 'stoma', 'score': 4.7606916}, {'brand_name': 'soma', 'score': 3.9359035}, {'brand_name': 'som 20', 'score': 2.9655125}, {'brand_name': 'som 40', 'score': 2.9622805}]
in/i/i5.png
OCR: Recognized: "agois"
OCR: Probability: 0.03919105
ES: [{'brand_name': 'agotin', 'score': 5.835371}, {'brand_name': 'agoxin', 'score': 5.8327413}, {'brand_name': 'aros', 'score': 4.862809}, {'brand_name': 'amodis', 'score': 4.4277005}]
in/i/i4.png
OCR: Recognized: "Eapo-"
OCR: Probability: 0.10200707
ES: [{'brand_name': 'napa', 'score': 3.3667037}, {'brand_name': 'espa', 'score': 3.3667037}, {'brand_name': 'epam', 'score': 3.3081272}, {'brand_name': 'maso', 'score': 3.268492}, {'brand_name': 'balo', 'score': 3.268492}, {'brand_name': 'ergo', 'score': 3.268492}]
in/i/i2.png
OCR: Recognized: "Epragie"
OCR: Probability: 0.021161536
ES: No Detection
in/i/i14.png
OCR: Recognized: "Osnieson"
OCR: Probability: 0.031346012
ES: No Detection
in/i/i3.png
OCR: Recognized: "Borg"
OCR: Probability: 0.030317321
ES: [{'brand_name': 'toro', 'score': 1.7787222}, {'brand_name': 'lora', 'score': 1.7699419}, {'brand_name': 'brom', 'score': 1.7267832}]
in/i/i8.png
OCR: Recognized: "osridun"
OCR: Probability: 0.09093428
ES: [{'brand_name': 'osiden', 'score': 5.9659567}]
in/i/i9.png
OCR: Recognized: "purots"
OCR: Probability: 0.011738078
ES: [{'brand_name': 'puron', 'score': 5.8271923}]
in/i/i1.png
OCR: Recognized: "Tas"
OCR: Probability: 0.20693395
ES: [{'brand_name': 'tms', 'score': 4.061488}, {'brand_name': 'tav', 'score': 4.061488}]
in/i/i13.png
OCR: Recognized: "ias"
OCR: Probability: 0.035548735
ES: No Detection
in/i/i10.png
OCR: Recognized: "Sn."
OCR: Probability: 0.00858054
ES: No Detection
in/i/i11.png
OCR: Recognized: "Pristssr"
OCR: Probability: 0.0020459723
ES: No Detection
in/i/i15.png
OCR: Recognized: "sorg"
OCR: Probability: 0.09854874
ES: [{'brand_name': 'sofa', 'score': 1.9635353}, {'brand_name': 'toro', 'score': 1.7787222}, {'brand_name': 'lora', 'score': 1.7699419}]
in/i/i12.png
OCR: Recognized: "ogop"
OCR: Probability: 0.027937997
ES: [{'brand_name': 'olon', 'score': 3.410494}, {'brand_name': 'itop', 'score': 3.410494}]
in/k/k8.png
OCR: Recognized: "bssw"
OCR: Probability: 0.025671808
ES: [{'brand_name': 'bost', 'score': 3.321826}, {'brand_name': 'bsh', 'score': 2.6329126}]
in/k/k1.png
OCR: Recognized: "voltabin"
OCR: Probability: 0.43139464
ES: [{'brand_name': 'voltalin', 'score': 6.173323}]
in/k/k7.png
OCR: Recognized: "norader"
OCR: Probability: 0.073798865
ES: [{'brand_name': 'lorades', 'score': 6.5355697}, {'brand_name': 'lorades', 'score': 5.3138456}, {'brand_name': 'norad', 'score': 3.7242374}]
in/k/k6.png
OCR: Recognized: "Ja."
OCR: Probability: 0.029330563
ES: No Detection
in/k/k5.png
OCR: Recognized: "ep."
OCR: Probability: 0.1408984
ES: No Detection
in/k/k4.png
OCR: Recognized: "Epnanile"
OCR: Probability: 0.11309581
ES: No Detection
in/k/k2.png
OCR: Recognized: "suppositorny"
OCR: Probability: 0.0994704
ES: [{'brand_name': 'tramacid', 'score': 6.209238}, {'brand_name': 'anxiolax', 'score': 6.209238}, {'brand_name': 'easium', 'score': 6.209238}, {'brand_name': 'indomet', 'score': 6.209238}, {'brand_name': 'naxin', 'score': 6.209238}, {'brand_name': 'anadol', 'score': 6.209238}, {'brand_name': 'meclam', 'score': 6.209238}, {'brand_name': 'periset', 'score': 6.209238}]
in/k/k3.png
OCR: Recognized: "Fkly"
OCR: Probability: 0.031013295
ES: [{'brand_name': 'foly', 'score': 6.8297653}]
in/m/m7.png
OCR: Recognized: "yoog"
OCR: Probability: 0.13381545
ES: [{'brand_name': 'kool', 'score': 3.1035311}]
in/m/m2.png
OCR: Recognized: "DBaIn"
OCR: Probability: 0.0570783
ES: [{'brand_name': 'ebatin', 'score': 5.8552384}, {'brand_name': 'domin', 'score': 5.4689007}, {'brand_name': 'dorin', 'score': 5.463813}, {'brand_name': 'xpain', 'score': 5.4551816}, {'brand_name': 'dirin', 'score': 5.230874}]
in/m/m4.png
OCR: Recognized: "expr"
OCR: Probability: 0.13640808
ES: [{'brand_name': 'expel', 'score': 3.1317093}, {'brand_name': 'exler', 'score': 3.1317093}, {'brand_name': 'espa', 'score': 3.1317093}]
in/m/m1.png
OCR: Recognized: "Burghy"
OCR: Probability: 0.050602447
ES: No Detection
in/m/m8.png
OCR: Recognized: "tas"
OCR: Probability: 0.3090999
ES: [{'brand_name': 'tms', 'score': 4.061488}, {'brand_name': 'tav', 'score': 4.061488}]
in/m/m9.png
OCR: Recognized: "Nopa"
OCR: Probability: 0.2247184
ES: [{'brand_name': 'napa', 'score': 6.8297653}, {'brand_name': 'nipa', 'score': 6.5615273}, {'brand_name': 'nova', 'score': 5.8580036}, {'brand_name': 'napa', 'score': 5.539673}]
in/m/m5.png
OCR: Recognized: "Cap"
OCR: Probability: 0.25655657
ES: No Detection
in/m/m10.png
OCR: Recognized: "Paroil"
OCR: Probability: 0.047505952
ES: [{'brand_name': 'aprozil', 'score': 6.50582}, {'brand_name': 'pankil', 'score': 6.465678}, {'brand_name': 'pronil', 'score': 6.465678}, {'brand_name': 'painil', 'score': 6.0765557}, {'brand_name': 'paradil', 'score': 6.070903}, {'brand_name': 'parkin', 'score': 6.070903}]
in/m/m6.png
OCR: Recognized: "Rofixtim"
OCR: Probability: 0.0462225
ES: [{'brand_name': 'rofixim', 'score': 5.6727066}]
in/m/m3.png
OCR: Recognized: "chup"
OCR: Probability: 0.093031324
ES: [{'brand_name': 'i cap', 'score': 2.5677962}]
in/a/a4.png
OCR: Recognized: "Bonog"
OCR: Probability: 0.068753704
ES: [{'brand_name': 'ponos', 'score': 5.8271923}, {'brand_name': 'bonova', 'score': 5.4898787}, {'brand_name': 'boxol', 'score': 4.4432573}, {'brand_name': 'boxol', 'score': 4.4432573}, {'brand_name': 'sono 2', 'score': 4.178711}]
in/a/a3.png
OCR: Recognized: "Rorstril"
OCR: Probability: 0.3848635
ES: [{'brand_name': 'rontril', 'score': 6.970522}, {'brand_name': 'rostil', 'score': 6.0765557}, {'brand_name': 'rostil sr', 'score': 5.289657}]
in/a/a9.png
OCR: Recognized: "belefar"
OCR: Probability: 0.14246275
ES: No Detection
in/a/a0.png
OCR: Recognized: "capo"
OCR: Probability: 0.124449275
ES: [{'brand_name': 'i cap', 'score': 4.5945845}, {'brand_name': 'd-cap', 'score': 4.225898}]
in/a/a7.png
OCR: Recognized: "1FOt"
OCR: Probability: 0.0025652589
ES: [{'brand_name': 'ufol', 'score': 1.6399845}, {'brand_name': 'soft', 'score': 1.6311209}]
in/a/a8.png
OCR: Recognized: "Fas."
OCR: Probability: 0.077667445
ES: [{'brand_name': 'fast', 'score': 2.3023775}]
in/a/a12.png
OCR: Recognized: "A."
OCR: Probability: 0.040977303
ES: No Detection
in/a/a5.png
OCR: Recognized: "Tas."
OCR: Probability: 0.3907292
ES: [{'brand_name': 'tms', 'score': 4.061488}, {'brand_name': 'tav', 'score': 4.061488}]
in/a/a10.png
OCR: Recognized: "1A0A0"
OCR: Probability: 0.018511763
ES: No Detection
in/a/a6.png
OCR: Recognized: "1asins"
OCR: Probability: 0.009375331
ES: No Detection
in/a/a11.png
OCR: Recognized: "Tas."
OCR: Probability: 0.1844143
ES: [{'brand_name': 'tms', 'score': 4.061488}, {'brand_name': 'tav', 'score': 4.061488}]
in/a/a13.png
OCR: Recognized: "OA1A0"
OCR: Probability: 0.09427445
ES: No Detection
in/a/a1.png
OCR: Recognized: "Lamtistess"
OCR: Probability: 0.016036218
ES: No Detection
in/f/f4.png
OCR: Recognized: "TO"
OCR: Probability: 0.0727325
ES: No Detection
in/f/f2.png
OCR: Recognized: "ACIx"
OCR: Probability: 0.023935003
ES: [{'brand_name': 'acin', 'score': 5.1283474}]
in/f/f10.png
OCR: Recognized: "Jrstg"
OCR: Probability: 0.018622342
ES: No Detection
in/f/f13.png
OCR: Recognized: "#50"
OCR: Probability: 0.0815233
ES: No Detection
in/f/f14.png
OCR: Recognized: "yrg"
OCR: Probability: 0.004806238
ES: [{'brand_name': 'nrg', 'score': 0.091420926}, {'brand_name': 'ergo', 'score': 0.08934524}]
in/f/f16.png
OCR: Recognized: "suppostiay"
OCR: Probability: 0.008377038
ES: No Detection
in/f/f1.png
OCR: Recognized: "Tt"
OCR: Probability: 0.03051122
ES: [{'brand_name': 'zt', 'score': 1.4441191}]
in/f/f3.png
OCR: Recognized: "1t0-"
OCR: Probability: 0.037294455
ES: No Detection
in/f/f12.png
OCR: Recognized: "MAMMOx"
OCR: Probability: 0.0071323854
ES: [{'brand_name': 'maximox', 'score': 6.50582}, {'brand_name': 'marlox', 'score': 5.8102717}, {'brand_name': 'admox', 'score': 4.7264786}]
in/f/f8.png
OCR: Recognized: "TAT6"
OCR: Probability: 0.027605223
ES: [{'brand_name': 'toti', 'score': 4.204738}, {'brand_name': 'toti', 'score': 3.6986282}, {'brand_name': 'tacs', 'score': 3.5402467}, {'brand_name': 'nata', 'score': 3.5402467}]
in/f/f15.png
OCR: Recognized: "Iindomet"
OCR: Probability: 0.05322415
ES: [{'brand_name': 'indomet', 'score': 7.498889}, {'brand_name': 'indomet', 'score': 7.498889}, {'brand_name': 'inomet', 'score': 6.4808235}]
in/f/f6.png
OCR: Recognized: "3050"
OCR: Probability: 0.16878219
ES: No Detection
in/f/f5.png
OCR: Recognized: "SyAnox"
OCR: Probability: 0.044163164
ES: [{'brand_name': 'cyano-b', 'score': 3.986191}, {'brand_name': 'stamox', 'score': 3.9641366}, {'brand_name': 'tanox', 'score': 3.5677233}, {'brand_name': 'tanox', 'score': 3.5677233}, {'brand_name': 'santox', 'score': 2.8586977}]
in/f/f9.png
OCR: Recognized: "RAPIDE"
OCR: Probability: 0.117159456
ES: [{'brand_name': 'lopide', 'score': 6.0765557}, {'brand_name': 'rapid c', 'score': 5.6643953}, {'brand_name': 'rapid c', 'score': 5.6643953}]
in/f/f7.png
OCR: Recognized: "pus"
OCR: Probability: 0.3221042
ES: No Detection
in/f/f11.png
OCR: Recognized: "TA"
OCR: Probability: 0.07960617
ES: [{'brand_name': 'tav', 'score': 1.4790871}]
in/e/e4.png
OCR: Recognized: "18.8."
OCR: Probability: 0.016679402
ES: No Detection
in/e/e8.png
OCR: Recognized: "Boe"
OCR: Probability: 0.08574739
ES: [{'brand_name': 'bsh', 'score': 1.9166299}, {'brand_name': 'lox', 'score': 1.868523}, {'brand_name': 'lox', 'score': 1.6284261}]
in/e/e6.png
OCR: Recognized: "Tab."
OCR: Probability: 0.21426144
ES: No Detection
in/e/14.png
OCR: Recognized: "#sty"
OCR: Probability: 0.08981687
ES: [{'brand_name': 'mty', 'score': 3.552949}, {'brand_name': 'stk', 'score': 3.1671538}, {'brand_name': 'ntz', 'score': 1.8248031}, {'brand_name': 'atp', 'score': 1.8248031}, {'brand_name': 'asta', 'score': 1.8248031}, {'brand_name': 'htz', 'score': 1.7761034}]
in/e/e13.png
OCR: Recognized: "coTmah"
OCR: Probability: 0.067093045
ES: No Detection
in/e/e10.png
OCR: Recognized: "To"
OCR: Probability: 0.030974595
ES: No Detection
in/e/e3.png
OCR: Recognized: "Toc"
OCR: Probability: 0.13823773
ES: No Detection
in/e/e14.png
OCR: Recognized: "Broin"
OCR: Probability: 0.01065443
ES: [{'brand_name': 'roin', 'score': 5.980128}, {'brand_name': 'biocin', 'score': 5.215467}, {'brand_name': 'broze', 'score': 5.215467}, {'brand_name': 'lorin', 'score': 5.215467}, {'brand_name': 'urosin', 'score': 5.215467}, {'brand_name': 'ibron', 'score': 5.215467}]
in/e/15.png
OCR: Recognized: "EEg"
OCR: Probability: 0.16247751
ES: [{'brand_name': 'tag', 'score': 1.9027195}]
in/e/e7.png
OCR: Recognized: "B-AIRA"
OCR: Probability: 0.017838601
ES: [{'brand_name': 'aria-15', 'score': 5.9737253}, {'brand_name': 'acira', 'score': 5.8528824}, {'brand_name': 'aria-10', 'score': 5.64648}, {'brand_name': 'd-pira', 'score': 5.367484}, {'brand_name': 'aire 2', 'score': 5.367484}, {'brand_name': 'aire 1', 'score': 5.361455}, {'brand_name': 'aire', 'score': 5.0063963}]
in/e/e5.png
OCR: Recognized: "y"
OCR: Probability: 0.06507683
ES: No Detection
in/e/e2.png
OCR: Recognized: "REERT"
OCR: Probability: 0.07171222
ES: [{'brand_name': 'revert', 'score': 6.3189907}, {'brand_name': 'dezert', 'score': 5.8552384}, {'brand_name': 'alert', 'score': 5.835371}, {'brand_name': 'avert', 'score': 5.463813}, {'brand_name': 'resart', 'score': 5.463813}, {'brand_name': 'rewat', 'score': 5.463813}, {'brand_name': 'reset', 'score': 5.215467}, {'brand_name': 'regut', 'score': 5.215467}]
in/e/e12.png
OCR: Recognized: "CHROIrG"
OCR: Probability: 0.009508759
ES: No Detection
in/e/e11.png
OCR: Recognized: "EmmRgTE"
OCR: Probability: 0.00025693208
ES: No Detection
in/e/13.png
OCR: Recognized: "2.0R"
OCR: Probability: 0.030565362
ES: [{'brand_name': 'cpd', 'score': 2.4835749}]
in/e/e1.png
OCR: Recognized: "Ta"
OCR: Probability: 0.017212162
ES: [{'brand_name': 'tav', 'score': 1.4790871}]
in/b/b8.png
OCR: Recognized: "17O4"
OCR: Probability: 0.06276004
ES: No Detection
in/b/b1.png
OCR: Recognized: "1a."
OCR: Probability: 0.13546142
ES: No Detection
in/b/b2.png
OCR: Recognized: "Bresti"
OCR: Probability: 0.1288947
ES: [{'brand_name': 'restin', 'score': 5.942765}, {'brand_name': 'restin', 'score': 5.289657}, {'brand_name': 'brostin', 'score': 5.2595925}]
in/b/b5.png
OCR: Recognized: "yab"
OCR: Probability: 0.12802684
ES: No Detection
in/b/b3.png
OCR: Recognized: "Gd"
OCR: Probability: 0.051314197
ES: No Detection
in/b/b6.png
OCR: Recognized: "Supheliud"
OCR: Probability: 0.0014377261
ES: No Detection
in/b/b7.png
OCR: Recognized: "gop"
OCR: Probability: 0.017068764
ES: No Detection
in/b/b4.png
OCR: Recognized: "190p0"
OCR: Probability: 0.006788003
ES: No Detection
in/g/g1.png
OCR: Recognized: "#9p"
OCR: Probability: 0.013817751
ES: No Detection
in/g/g24.png
OCR: Recognized: "19"
OCR: Probability: 0.12030247
ES: No Detection
in/g/g25.png
OCR: Recognized: "Ful."
OCR: Probability: 0.1037148
ES: [{'brand_name': 'e flu', 'score': 1.0752647}, {'brand_name': 'flu k', 'score': 1.0752647}, {'brand_name': 'i-fol', 'score': 0.8998398}]
in/g/g33.png
OCR: Recognized: "3"
OCR: Probability: 0.31176135
ES: No Detection
in/g/g20.png
OCR: Recognized: "Aoes"
OCR: Probability: 0.02221696
ES: [{'brand_name': 'aros', 'score': 4.2096467}, {'brand_name': 'acep', 'score': 4.2096467}, {'brand_name': 'anet', 'score': 4.204738}, {'brand_name': 'noet', 'score': 4.1049557}]
in/g/g30.png
OCR: Recognized: "Ts"
OCR: Probability: 0.13865465
ES: No Detection
in/g/g4.png
OCR: Recognized: "desween"
OCR: Probability: 0.015668474
ES: No Detection
in/g/g13.png
OCR: Recognized: "8"
OCR: Probability: 0.21720514
ES: No Detection
in/g/g14.png
OCR: Recognized: "Gap"
OCR: Probability: 0.26848096
ES: [{'brand_name': 'gat', 'score': 3.9982026}, {'brand_name': 'agp', 'score': 3.9096653}]
in/g/g8.png
OCR: Recognized: "fozny"
OCR: Probability: 0.12546901
ES: [{'brand_name': 'dozy', 'score': 4.879365}, {'brand_name': 'foly', 'score': 4.8559937}, {'brand_name': 'fona', 'score': 4.4434214}, {'brand_name': 'fona', 'score': 4.178711}]
in/g/g23.png
OCR: Recognized: "Cilosta"
OCR: Probability: 0.15472196
ES: [{'brand_name': 'cilosta', 'score': 9.698519}, {'brand_name': 'costa-b', 'score': 3.986191}]
in/g/g27.png
OCR: Recognized: "25"
OCR: Probability: 0.05540271
ES: No Detection
in/g/g29.png
OCR: Recognized: "Urveax"
OCR: Probability: 0.0030024154
ES: [{'brand_name': 'uromax', 'score': 6.465678}, {'brand_name': 'urex 40', 'score': 4.453614}]
in/g/g31.png
OCR: Recognized: "Tals"
OCR: Probability: 0.16164836
ES: [{'brand_name': 'tacs', 'score': 4.9830055}, {'brand_name': 'balo', 'score': 4.0778804}, {'brand_name': 'utal', 'score': 4.0778804}, {'brand_name': 'teles', 'score': 4.0778804}]
in/g/g17.png
OCR: Recognized: "tut."
OCR: Probability: 0.10404294
ES: [{'brand_name': 'tium', 'score': 1.5039142}, {'brand_name': 'ket', 'score': 1.5039142}]
in/g/g10.png
OCR: Recognized: "Amdoeul"
OCR: Probability: 0.028015245
ES: No Detection
in/g/g16.png
OCR: Recognized: "gRis"
OCR: Probability: 0.07855346
ES: [{'brand_name': 'ovis', 'score': 4.090341}, {'brand_name': 'aros', 'score': 4.090341}, {'brand_name': 'orin', 'score': 4.089428}]
in/g/g5.png
OCR: Recognized: "Tod"
OCR: Probability: 0.056497347
ES: No Detection
in/g/g6.png
OCR: Recognized: "Andeseul"
OCR: Probability: 0.047558762
ES: No Detection
in/g/g9.png
OCR: Recognized: "Totn"
OCR: Probability: 0.049914338
ES: [{'brand_name': 'toti', 'score': 6.8297653}, {'brand_name': 'toti', 'score': 5.3048224}, {'brand_name': 'tokn', 'score': 5.1522665}, {'brand_name': 'rotan', 'score': 4.553177}, {'brand_name': 'tone', 'score': 4.553177}, {'brand_name': 'roin', 'score': 4.553177}, {'brand_name': 'toro', 'score': 4.224561}, {'brand_name': 'tofen', 'score': 4.224561}, {'brand_name': 'tofen', 'score': 4.224561}]
in/g/g32.png
OCR: Recognized: "Flwor"
OCR: Probability: 0.005664983
ES: [{'brand_name': 'flonor', 'score': 2.147726}, {'brand_name': 'b-clor', 'score': 2.0355327}, {'brand_name': 'e clor', 'score': 2.0355327}, {'brand_name': 'a flox', 'score': 2.0355327}, {'brand_name': 'flox', 'score': 2.0151038}, {'brand_name': 'c-flox', 'score': 1.6311209}]
in/g/g7.png
OCR: Recognized: "Fan."
OCR: Probability: 0.10676347
ES: No Detection
in/g/g22.png
OCR: Recognized: "Forls."
OCR: Probability: 0.16136765
ES: No Detection
in/g/g2.png
OCR: Recognized: "er"
OCR: Probability: 0.07603261
ES: No Detection
in/g/g18.png
OCR: Recognized: "Ara"
OCR: Probability: 0.088250466
ES: [{'brand_name': 'para', 'score': 3.67972}, {'brand_name': 'ana', 'score': 3.593265}, {'brand_name': 'lara', 'score': 3.5546277}]
in/g/g12.png
OCR: Recognized: "Bistol"
OCR: Probability: 0.22841021
ES: [{'brand_name': 'bactol', 'score': 6.0998645}, {'brand_name': 'misotol', 'score': 6.0998645}, {'brand_name': 'restol', 'score': 6.078807}, {'brand_name': 'biofol', 'score': 6.078807}, {'brand_name': 'histal', 'score': 6.078807}]
in/g/g26.png
OCR: Recognized: "Guiet"
OCR: Probability: 0.31603557
ES: [{'brand_name': 'gutset', 'score': 5.835371}, {'brand_name': 'galet', 'score': 5.4689007}, {'brand_name': 'kuit', 'score': 4.862809}]
in/g/g19.png
OCR: Recognized: "8"
OCR: Probability: 0.12277992
ES: No Detection
in/g/g11.png
OCR: Recognized: "Tuls."
OCR: Probability: 0.09386089
ES: [{'brand_name': 'tulos', 'score': 3.2284777}, {'brand_name': 'tulsi', 'score': 2.576636}, {'brand_name': 'teles', 'score': 2.1625454}, {'brand_name': 'tulac', 'score': 2.1568182}, {'brand_name': 'tulip', 'score': 2.1523185}]
in/g/g21.png
OCR: Recognized: "te"
OCR: Probability: 0.04323672
ES: [{'brand_name': 'tek', 'score': 1.4644961}]
in/g/g28.png
OCR: Recognized: "Paps"
OCR: Probability: 0.015268689
ES: [{'brand_name': 'para', 'score': 2.1523185}, {'brand_name': 'napa', 'score': 2.1523185}]
in/g/g15.png
OCR: Recognized: "eeegrica"
OCR: Probability: 0.0088073
ES: No Detection
in/g/g3.png
OCR: Recognized: "Tat"
OCR: Probability: 0.07296049
ES: [{'brand_name': 'gat', 'score': 4.237824}, {'brand_name': 'tav', 'score': 4.061488}, {'brand_name': 'naf', 'score': 3.4417827}]
in/d/d3.png
OCR: Recognized: "75"
OCR: Probability: 0.38659796
ES: No Detection
in/d/d8.png
OCR: Recognized: "81"
OCR: Probability: 0.027247826
ES: No Detection
in/d/d1.png
OCR: Recognized: "TOAB."
OCR: Probability: 0.03716786
ES: [{'brand_name': 'koal', 'score': 4.357704}]
in/d/d9.png
OCR: Recognized: "TT."
OCR: Probability: 0.047101624
ES: [{'brand_name': 'zt', 'score': 1.4441191}]
in/d/d2.png
OCR: Recognized: "ELOEPRSs"
OCR: Probability: 0.004883206
ES: No Detection
in/d/d13.png
OCR: Recognized: "Ady"
OCR: Probability: 0.49768236
ES: [{'brand_name': 'amb', 'score': 2.4344172}]
in/d/d6.png
OCR: Recognized: "TAB."
OCR: Probability: 0.029743671
ES: No Detection
in/d/d5.png
OCR: Recognized: "E)OUHIO"
OCR: Probability: 9.8698096e-05
ES: [{'brand_name': 'icol e/e', 'score': 1.850867}, {'brand_name': 'provit e', 'score': 1.7187375}, {'brand_name': 'e hexin', 'score': 1.7187375}]
in/d/d15.png
OCR: Recognized: "SusMr-y"
OCR: Probability: 0.009639778
ES: [{'brand_name': 'sudor-x', 'score': 3.7225533}]
in/d/d12.png
OCR: Recognized: "Refd"
OCR: Probability: 0.27364793
ES: [{'brand_name': 'refla', 'score': 3.7058997}]
in/d/d4.png
OCR: Recognized: "CR."
OCR: Probability: 0.25081766
ES: No Detection
in/d/d10.png
OCR: Recognized: "APNayS"
OCR: Probability: 0.00030495672
ES: [{'brand_name': 'ancys', 'score': 3.0840573}]
in/d/d14.png
OCR: Recognized: "#o"
OCR: Probability: 0.25558427
ES: No Detection
in/d/d7.png
OCR: Recognized: "TAVEdr"
OCR: Probability: 0.04164292
ES: No Detection
in/j/j2.png
OCR: Recognized: "fimeorlare"
OCR: Probability: 0.0068598483
ES: No Detection
in/j/j6.png
OCR: Recognized: "Mass"
OCR: Probability: 0.23484203
ES: [{'brand_name': 'maso', 'score': 6.1168203}, {'brand_name': 'mave', 'score': 3.831045}, {'brand_name': 'fast', 'score': 3.831045}]
in/j/j3.png
OCR: Recognized: "bu"
OCR: Probability: 0.12327628
ES: [{'brand_name': 'png', 'score': 1.4777572}]
in/j/j8.png
OCR: Recognized: "Blo"
OCR: Probability: 0.02295646
ES: [{'brand_name': 'elo', 'score': 5.2079244}, {'brand_name': 'cpd', 'score': 4.4501295}, {'brand_name': 'clof', 'score': 2.7366369}, {'brand_name': 'clob', 'score': 2.7366369}, {'brand_name': 'eco', 'score': 2.7366369}]
in/j/j7.png
OCR: Recognized: "Sergel"
OCR: Probability: 0.18158554
ES: [{'brand_name': 'pregel', 'score': 6.4808235}, {'brand_name': 'servex', 'score': 6.0613112}]
in/j/j4.png
OCR: Recognized: "To."
OCR: Probability: 0.020858118
ES: No Detection
in/j/j1.png
OCR: Recognized: "Cat"
OCR: Probability: 0.29534477
ES: [{'brand_name': 'act', 'score': 4.237824}, {'brand_name': 'gat', 'score': 4.237824}]
in/j/j5.png
OCR: Recognized: "stol"
OCR: Probability: 0.0015684718
ES: [{'brand_name': 'estol', 'score': 6.519333}, {'brand_name': 'etol', 'score': 5.334951}, {'brand_name': 'l-sol', 'score': 5.3099775}, {'brand_name': 'l-sol', 'score': 4.7034836}, {'brand_name': 'ostel', 'score': 4.553177}, {'brand_name': 'cetol', 'score': 4.374352}, {'brand_name': 'letol', 'score': 4.374352}, {'brand_name': 'actol', 'score': 4.374352}, {'brand_name': 'asmol', 'score': 4.346222}]
in/L/l2.png
OCR: Recognized: "AbtADS"
OCR: Probability: 0.007871022
ES: No Detection
in/L/l10.png
OCR: Recognized: "phewergs"
OCR: Probability: 0.05110639
ES: No Detection
in/L/l4.png
OCR: Recognized: "Ftndok"
OCR: Probability: 0.038708776
ES: No Detection
in/L/l6.png
OCR: Recognized: "Ftndok"
OCR: Probability: 0.038708776
ES: No Detection
in/L/l5.png
OCR: Recognized: "9"
OCR: Probability: 0.056883767
ES: No Detection
in/L/l9.png
OCR: Recognized: "#"
OCR: Probability: 0.12277954
ES: No Detection
in/L/l7.png
OCR: Recognized: "9"
OCR: Probability: 0.056883767
ES: No Detection
in/L/l3.png
OCR: Recognized: "#t"
OCR: Probability: 0.11286457
ES: No Detection
in/L/l8.png
OCR: Recognized: "Broben"
OCR: Probability: 0.3574542
ES: [{'brand_name': 'froben', 'score': 7.595695}, {'brand_name': 'brozep', 'score': 6.0613112}, {'brand_name': 'broket', 'score': 6.0613112}]
in/L/l1.png
OCR: Recognized: "3uR"
OCR: Probability: 0.002435194
ES: [{'brand_name': 'gbr', 'score': 2.3599224}, {'brand_name': 'lox', 'score': 1.6284261}, {'brand_name': 'luf', 'score': 1.6284261}, {'brand_name': 'cip', 'score': 1.6284261}]
in/c/c1.png
OCR: Recognized: "Pal."
OCR: Probability: 0.20517468
ES: [{'brand_name': 'lax', 'score': 3.593265}, {'brand_name': 'pam', 'score': 3.526036}, {'brand_name': 'pol', 'score': 3.4800422}, {'brand_name': 'a-pak', 'score': 3.3707588}, {'brand_name': 'm-pol', 'score': 3.3707588}]
in/c/c2.png
OCR: Recognized: "eryast"
OCR: Probability: 0.025411049
ES: [{'brand_name': 'relast', 'score': 6.4808235}, {'brand_name': 'erynet', 'score': 4.1361694}]
in/c/c4.png
OCR: Recognized: "Ya."
OCR: Probability: 0.074307345
ES: No Detection
in/c/c3.png
OCR: Recognized: "gg"
OCR: Probability: 0.08821895
ES: No Detection
in/c/c5.png
OCR: Recognized: "Aac)D"
OCR: Probability: 0.00025249174
ES: [{'brand_name': 'd-lac', 'score': 5.1763964}, {'brand_name': 'naf', 'score': 5.162674}]
in/h/h2.png
OCR: Recognized: "Apragle"
OCR: Probability: 0.042896774
ES: No Detection
in/h/h10.png
OCR: Recognized: "1org"
OCR: Probability: 0.06614393
ES: [{'brand_name': 'toro', 'score': 1.7787222}, {'brand_name': 'lora', 'score': 1.7699419}]
in/h/h15.png
OCR: Recognized: "Ormiermn"
OCR: Probability: 0.017704027
ES: No Detection
in/h/h4.png
OCR: Recognized: "Gapo"
OCR: Probability: 0.220759
ES: [{'brand_name': 'napa', 'score': 4.204738}, {'brand_name': 'maso', 'score': 4.0778804}]
in/h/h9.png
OCR: Recognized: "oridon"
OCR: Probability: 0.020901185
ES: [{'brand_name': 'pridon', 'score': 7.57664}, {'brand_name': 'ridon', 'score': 7.2735744}, {'brand_name': 'omidon', 'score': 7.0160775}, {'brand_name': 'doridon', 'score': 7.0160775}, {'brand_name': 'loridon', 'score': 7.0160775}, {'brand_name': 'orbidon', 'score': 7.0160775}, {'brand_name': 'eridon', 'score': 6.1643806}, {'brand_name': 'omidon', 'score': 6.1643806}]
in/h/h1.png
OCR: Recognized: "Ts"
OCR: Probability: 0.097157665
ES: No Detection
in/h/h16.png
OCR: Recognized: "gorog"
OCR: Probability: 0.060396813
ES: [{'brand_name': 'toro', 'score': 4.879365}, {'brand_name': 'gerox', 'score': 3.986191}, {'brand_name': 'toro', 'score': 3.6986282}]
in/h/h8.png
OCR: Recognized: "Pies."
OCR: Probability: 0.07014075
ES: [{'brand_name': 'pidus', 'score': 2.1625454}, {'brand_name': 'pzen', 'score': 2.1568182}, {'brand_name': 'pase 2', 'score': 1.9815603}, {'brand_name': 'i-pill', 'score': 1.9815603}]
in/h/h3.png
OCR: Recognized: "wogn"
OCR: Probability: 0.012265156
ES: [{'brand_name': 'roin', 'score': 4.553177}, {'brand_name': 'tokn', 'score': 3.4348445}, {'brand_name': 'roin', 'score': 3.309079}, {'brand_name': 'win', 'score': 3.0382779}, {'brand_name': 'g-con', 'score': 2.9622805}, {'brand_name': 'wigan', 'score': 2.8912768}, {'brand_name': 'f-lon', 'score': 2.783868}]
in/h/h13.png
OCR: Recognized: "ogog"
OCR: Probability: 0.036794215
ES: [{'brand_name': 'olon', 'score': 3.6931152}, {'brand_name': 'ocof', 'score': 3.309079}, {'brand_name': 'pogo', 'score': 1.6090153}]
in/h/h5.png
OCR: Recognized: "ais"
OCR: Probability: 0.013135446
ES: No Detection
in/h/h11.png
OCR: Recognized: "Res."
OCR: Probability: 0.0722595
ES: [{'brand_name': 'rem', 'score': 3.9096653}, {'brand_name': 'des', 'score': 3.9096653}, {'brand_name': 'des', 'score': 3.3224487}]
in/h/h14.png
OCR: Recognized: "Toss."
OCR: Probability: 0.19110538
ES: [{'brand_name': 'tos 15', 'score': 4.9821324}, {'brand_name': 'm boss', 'score': 4.9647202}, {'brand_name': 'toro', 'score': 4.374352}, {'brand_name': 'toma', 'score': 4.374352}, {'brand_name': 'cosy', 'score': 4.089428}]
in/h/h6.png
OCR: Recognized: "g0"
OCR: Probability: 0.015612987
ES: No Detection
in/h/h12.png
OCR: Recognized: "Brsauer"
OCR: Probability: 0.0053857816
ES: No Detection
in/h/h7.png
OCR: Recognized: "sags"
OCR: Probability: 0.019703578
ES: [{'brand_name': 'rago', 'score': 3.6986282}, {'brand_name': 'sabus', 'score': 3.6986282}, {'brand_name': 'tacs', 'score': 3.3220034}]
